<svg xmlns="http://www.w3.org/2000/svg" xmlns:xlink="http://www.w3.org/1999/xlink" viewBox="0 0 5178.01 5176.49">
  <defs>
    <clipPath id="clip-path">
      <path d="M5174.4,2588.4,2588.62,2.62,2.85,2588.4,2588.62,5174.19,5174.4,2588.4ZM2588.62,58.85,5118.18,2588.4,2588.62,5117.93,59.08,2588.4,2588.62,58.85ZM5102.12,2588.4,2588.62,74.91,75.13,2588.4,2588.62,5101.88,5102.12,2588.4Zm-54.79,0L2588.62,5047.09,129.92,2588.4,2588.62,129.7,5047.33,2588.4Zm-17.49,0L2588.62,147.19,147.42,2588.4l2441.2,2441.2L5029.84,2588.4Zm-53.36,0L2588.62,4976.27,200.77,2588.4,2588.62,200.54,4976.48,2588.4Zm-18.94,0L2588.62,219.48,219.71,2588.4,2588.62,4957.33,4957.54,2588.4Zm-2368.92-2317,2317,2317-2317,2317-2317-2317,2317-2317Zm2296.64,2317L2588.62,291.77,292,2588.4,2588.62,4885,4885.26,2588.4Zm-50.48,0L2588.62,4834.57,342.46,2588.4,2588.62,342.23,4834.78,2588.4Zm-21.8,0L2588.62,364.05,364.28,2588.4,2588.62,4812.74,4813,2588.4Zm-49,0L2588.62,4763.72,413.31,2588.4,2588.62,413.08,4763.93,2588.4Zm-23.25,0L2588.62,436.34,436.57,2588.4l2152,2152.07L4740.68,2588.4ZM2588.62,483.92,4693.12,2588.4,2588.62,4692.87,484.15,2588.4,2588.62,483.92ZM4668.4,2588.4,2588.62,508.63,508.85,2588.4,2588.62,4668.16,4668.4,2588.4Zm-46.13,0L2588.62,4622,555,2588.4,2588.62,554.77,4622.27,2588.4Zm-26.15,0L2588.62,580.92,581.14,2588.4,2588.62,4595.88,4596.12,2588.4Zm-44.7,0L2588.62,4551.18,625.84,2588.4,2588.62,625.61,4551.42,2588.4Zm-27.61,0L2588.62,653.2,653.43,2588.4,2588.62,4523.61,4523.81,2588.4ZM2588.62,696.46l1892,1891.94L2588.62,4480.33,696.68,2588.4,2588.62,696.46ZM4451.54,2588.4,2588.62,725.49,725.71,2588.4,2588.62,4451.3,4451.54,2588.4ZM2588.62,767.3l1821.1,1821.1L2588.62,4409.48,767.53,2588.4,2588.62,767.3ZM4379.23,2588.4,2588.62,797.78,798,2588.4,2588.62,4379,4379.23,2588.4Zm-40.36,0L2588.62,4338.66,838.37,2588.4,2588.62,838.15,4338.87,2588.4Zm-31.92,0L2588.62,870.07,870.29,2588.4,2588.62,4306.74,4307,2588.4Zm-38.93,0L2588.62,4267.81,909.22,2588.4,2588.62,909,4268,2588.4Zm-33.34,0-1646.06-1646L942.58,2588.4l1646,1646,1646.06-1646ZM2588.62,979.84,4197.17,2588.4,2588.62,4197,980.07,2588.4,2588.62,979.84ZM4162.37,2588.4,2588.62,1014.64,1014.87,2588.4,2588.62,4162.16,4162.37,2588.4Zm-36,0L2588.62,4126.12,1050.91,2588.4,2588.62,1050.68,4126.33,2588.4Zm-36.24,0L2588.62,1086.93,1087.15,2588.4,2588.62,4089.88,4090.09,2588.4Zm-34.61,0L2588.62,4055.27,1121.76,2588.4,2588.62,1121.53,4055.48,2588.4Zm-37.66,0L2588.62,1159.21,1159.44,2588.4,2588.62,4017.58,4017.82,2588.4Zm-1429.2-1396,1396,1396-1396,1396-1396-1396,1396-1396Zm1356.89,1396L2588.62,1231.5,1231.73,2588.4,2588.62,3945.3,3945.51,2588.4Zm-31.7,0L2588.62,3913.57,1263.45,2588.4,2588.62,1263.22,3913.81,2588.4Zm-40.58,0L2588.62,1303.79,1304,2588.4,2588.62,3873,3873.23,2588.4Zm-30.27,0L2588.62,3842.72,1334.29,2588.4,2588.62,1334.07,3843,2588.4Zm-42,0L2588.62,1376.07,1376.3,2588.4,2588.62,3800.71,3801,2588.4ZM2588.62,1404.91,3772.11,2588.4,2588.62,3771.87,1405.14,2588.4,2588.62,1404.91Zm1140,1183.49-1140-1140-1140,1140,1140,1140,1140-1140Zm-1140-1112.64L3701.27,2588.4,2588.62,3701,1476,2588.4,2588.62,1475.76ZM3656.37,2588.4,2588.62,1520.65,1520.87,2588.4,2588.62,3656.16,3656.37,2588.4Zm-25.95,0L2588.62,3630.21,1546.83,2588.4,2588.62,1546.6l1041.8,1041.8Zm-46.33,0-995.47-995.47L1593.16,2588.4l995.46,995.45,995.47-995.45Zm-24.52,0-971,971-970.95-971,970.95-970.95,971,971Zm-47.78,0-923.17-923.18L1665.45,2588.4l923.17,923.18,923.17-923.18Zm-23.07,0-900.1,900.11-900.1-900.11,900.1-900.11,900.1,900.11Zm-49.21,0-850.89-850.89L1737.73,2588.4l850.89,850.9,850.89-850.9Zm-21.64,0-829.25,829.26L1759.36,2588.4l829.26-829.26,829.25,829.26Zm-50.64,0-778.61-778.6L1810,2588.4,2588.62,3367l778.61-778.59Zm-20.18,0-758.43,758.41L1830.21,2588.4,2588.62,1830l758.43,758.42Zm-52.12,0-706.31-706.32L1882.31,2588.4l706.31,706.32,706.31-706.32Zm-706.31-687.57,687.59,687.57L2588.62,3276,1901.05,2588.4l687.57-687.57Z"
        fill="none" />
    </clipPath>
    <radialGradient id="grad" cx="2589.01" cy="2588.24" r="2588.62" gradientUnits="userSpaceOnUse">
      <stop offset="0" stop-color="#0092ec" />
      <stop offset="1" stop-color="#0bded5" />
    </radialGradient>
  </defs>
  <title>bg</title>
  <g clip-path="url(#clip-path)">
    <rect width="5178.01" height="5176.49" fill="url(#grad)" />
  </g>
</svg>